[
  {
    "label": "Dashboard",
    "icon": "dashboard",
    "visible": true,
    "routerLink": [
      "dashboard"
    ]
  },
  {
    "label": "Dashboard-mlt",
    "icon": "dashboard",
    "visible": true,
    "routerLink": [
      "dashboard",
      "mlt"
    ]
  },
  {
    "label": "Chatbot",
    "icon": "android",
    "visible": true,
    "roles": [
      "$wsUser",
      "$authenticated"
    ],
    "children": [
      {
        "label": "Chatbots",
        "visible": true,
        "routerLink": [
          "m2u-builder",
          "chatbots"
        ]
      },
      {
        "label": "Test Bot",
        "visible": true,
        "routerLink": [
          "m2u-builder",
          "chatbots",
          "test"
        ]
      },
      {
        "label": "Dialog Agent Manager",
        "visible": true,
        "routerLink": [
          "m2u-builder",
          "dialog-svcs"
        ]
      },
      {
        "label": "Dialog Agents",
        "visible": true,
        "routerLink": [
          "m2u-builder",
          "dialog-agents"
        ]
      }
    ]
  },
  {
    "label": "Intent Finder",
    "icon": "import_contacts",
    "visible": true,
    "children": [
      {
        "label": "Intent Finder Policy",
        "visible": true,
        "routerLink": [
          "m2u-builder",
          "intent-finder"
        ]
      },
      {
        "label": "Intent Finder Instance",
        "visible": true,
        "routerLink": [
          "m2u-builder",
          "intent-finder-instance"
        ]
      },
      {
        "label": "DNN Classifier Model",
        "icon": "",
        "visible": true,
        "routerLink": [
          "m2u-builder",
          "dnncl-models"
        ]
      },
      {
        "label": "HMD Model",
        "icon": "",
        "visible": true,
        "routerLink": [
          "m2u-builder",
          "hmd-models"
        ]
      },
      {
      "label": "XDC Model",
      "icon": "",
      "visible": true,
      "routerLink": [
        "m2u-builder",
        "xdc-models"
      ]
      },
      {
        "label": "Simple Classifier",
        "icon": "",
        "visible": true,
        "routerLink": [
          "m2u-builder",
          "simple-classifiers"
        ]
      },
      {
        "label": "Model Version",
        "icon": "",
        "visible": false,
        "routerLink": [
          "m2u-builder",
          "version"
        ]
      }
    ]
  },
  {
    "label": "Dialog Model",
    "icon": "chat",
    "visible": true,
    "children": [
      {
        "label": "Dialog Design Message Code",
        "visible": true,
        "routerLink": ["m2u-builder", "dialog-designs", "msg"]
      },
      {
        "label": "Dialog Design",
        "visible": true,
        "routerLink": ["m2u-builder", "dialog-designs", "edit"]
      },
      {
        "label": "Dialog Models",
        "visible": false,
        "routerLink": [
          "m2u-builder",
          "dialog-models"
        ]
      },
      {
        "label": "Dialog Task",
        "visible": false,
        "routerLink": [
          "m2u-builder",
          "dialog-models",
          ":modelId",
          "task"
        ]
      },
      {
        "label": "Dialog Task2",
        "visible": false,
        "routerLink": [
          "m2u-builder",
          "dialog-models",
          ":modelId",
          "task2"
        ]
      },
      {
        "label": "Dialog Intent",
        "visible": false,
        "routerLink": [
          "m2u-builder",
          "dialog-models",
          ":modelId",
          "intent"
        ]
      },
      {
        "label": "Dialog Entity",
        "visible": false,
        "routerLink": [
          "m2u-builder",
          "dialog-models",
          ":modelId",
          "entity"
        ]
      },
      {
        "label": "Dialog Chat",
        "visible": false,
        "routerLink": [
          "m2u-builder",
          "dialog-models",
          ":modelId",
          "test"
        ]
      },
      {
        "label": "Dialog Document",
        "visible": false,
        "routerLink": [
          "m2u-builder",
          "dialog-models",
          "doc"
        ]
      },
      {
        "label": "Dialog Design",
        "visible": false,
        "routerLink": [
          "m2u-builder",
          "dialog-designs",
          "edit"
        ]
      }
    ]
  },
  {
    "label": "Question & Answer",
    "icon": "question_answer",
    "visible": true,
    "children": [
      {
        "label": "NQA : Categories",
        "visible": true,
        "routerLink": [
          "m2u-builder",
          "nqa",
          "categories",
          "channels"
        ]
      },
      {
        "label": "NQA : QA Sets",
        "visible": true,
        "routerLink": [
          "m2u-builder",
          "nqa",
          "categories",
          "qa-sets"
        ]
      },
      {
        "label": "NQA : Indexing",
        "visible": true,
        "routerLink": [
          "m2u-builder",
          "nqa",
          "categories",
          "indexing"
        ]
      },
      {
        "divider": true,
        "label": "BQA : Items",
        "visible": true,
        "routerLink": [
          "m2u-builder",
          "bqa",
          "categories",
          "items"
        ]
      },
      {
        "label": "BQA : Schedule",
        "visible": true,
        "routerLink": [
          "m2u-builder",
          "bqa",
          "categories",
          "schedule"
        ]
      },
      {
        "label": "BQA : Question",
        "visible": true,
        "routerLink": [
          "m2u-builder",
          "bqa",
          "categories",
          "question"
        ]
      },
      {
        "label": "BQA : Paraphrase",
        "visible": true,
        "routerLink": [
          "m2u-builder",
          "bqa",
          "categories",
          "paraphrase"
        ]
      },
      {
        "label": "BQA : Category",
        "visible": true,
        "routerLink": [
          "m2u-builder",
          "bqa",
          "categories",
          "category"
        ]
      }
    ]
  },
  {
    "label": "Speech To Text",
    "icon": "mic",
    "visible": true,
    "children": [
      {
        "label": "LM : FileManagement",
        "visible": true,
        "routerLink": [
          "m2u-builder",
          "stt",
          "lm",
          "file-management"
        ]
      },
      {
        "label": "LM : Transcription",
        "visible": true,
        "routerLink": [
          "m2u-builder",
          "stt",
          "lm",
          "transcription"
        ]
      },
      {
        "label": "LM : Training",
        "visible": true,
        "routerLink": [
          "m2u-builder",
          "stt",
          "lm",
          "training"
        ]
      },
      {
        "divider": true,
        "label": "AM : FileManagement",
        "visible": true,
        "routerLink": [
          "m2u-builder",
          "stt",
          "am",
          "file-management"
        ]
      },
      {
        "label": "AM : Transcription",
        "visible": true,
        "routerLink": [
          "m2u-builder",
          "stt",
          "am",
          "transcription"
        ]
      },
      {
        "label": "AM : QualityAssurance",
        "visible": true,
        "routerLink": [
          "m2u-builder",
          "stt",
          "am",
          "quality-assurance"
        ]
      },
      {
        "label": "AM : Training",
        "visible": true,
        "routerLink": [
          "m2u-builder",
          "stt",
          "am",
          "training"
        ]
      },
      {
        "divider": true,
        "label": "Analysis",
        "visible": true,
        "routerLink": [
          "m2u-builder",
          "stt",
          "analysis",
          "analyze"
        ]
      },
      {
        "label": "Analysis : Result",
        "visible": true,
        "routerLink": [
          "m2u-builder",
          "stt",
          "analysis",
          "result"
        ]
      },
      {
        "divider": true,
        "label": "Evaluation",
        "visible": true,
        "routerLink": [
          "m2u-builder",
          "stt",
          "evaluation",
          "evaluate"
        ]
      },
      {
        "label": "Evaluation : Result",
        "visible": true,
        "routerLink": [
          "m2u-builder",
          "stt",
          "evaluation",
          "result"
        ]
      }
    ]
  },
  {
    "label": "Dictionary",
    "icon": "import_contacts",
    "visible": true,
    "children": [
      {
        "label": "Morpheme",
        "visible": true,
        "routerLink": [
          "m2u-builder",
          "dict-nlp3",
          "morps"
        ]
      },
      {
        "label": "Named Entity",
        "visible": true,
        "routerLink": [
          "m2u-builder",
          "dict-nlp3",
          "ner"
        ]
      },
      {
        "label": "Replacement",
        "visible": true,
        "routerLink": [
          "m2u-builder",
          "dict-nlp3",
          "replacement"
        ]
      },
      {
        "label": "Test NLP",
        "visible": true,
        "routerLink": [
          "m2u-builder",
          "nlp-test"
        ]
      }
    ]
  },



  {
    "label": "Paraphrase",
    "icon": "question_answer",
    "visible": true,
    "children": [
      {
        "label": "Query Paraphrase",
        "visible": true,
        "routerLink": [
          "m2u-builder",
          "paraphrase",
          "list"
        ]
      },
      {
        "label": "Query Paraphrase Step",
        "visible": true,
        "routerLink": [
          "m2u-builder",
          "paraphrase",
          "step"
        ]
      },
      {
        "label": "Synonym",
        "visible": true,
        "routerLink": [
          "m2u-builder",
          "paraphrase",
          "synonym"
        ]
      },
      {
        "label": "Ending PostPosition",
        "visible": true,
        "routerLink": [
          "m2u-builder",
          "paraphrase",
          "ending-post-position"
        ]
      }
    ]
  },



  {
    "label": "MRC",
    "icon": "location_city",
    "visible": true,
    "children": [
      {
        "label": "Passages",
        "visible": true,
        "routerLink": [
          "m2u-builder",
          "mrc"
        ]
      },
      {
        "label": "Questions & Answers",
        "visible": true,
        "routerLink": [
          "m2u-builder",
          "mrc",
          "qas"
        ]
      }
    ]
  },



  {
    "divider": true,
    "label": "Management",
    "icon": "account_box",
    "visible": true,
    "children": [
      {
        "label": "Accounts",
        "visible": true,
        "routerLink": [
          "m2u-builder",
          "admin",
          "accounts"
        ]
      },
      {
        "label": "Profile",
        "visible": true,
        "routerLink": [
          "m2u-builder",
          "profile"
        ]
      },
      {
        "label": "System",
        "visible": true,
        "routerLink": [
          "m2u-builder",
          "admin",
          "system"
        ]
      }
    ]
  }
]
