{
  "name": "Engine",
  "idInjection": true,
  "options": {
    "mysql": {
      "table": "MAI_ENGINE"
    }
  },
  "mixins": {
    "Default": {},
    "IdGenerator": {}
  },
  "forceId": false,
  "properties": {
    "name": {
      "type": "string",
      "required": true,
      "index": {
        "unique": true
      }
    },
    "categories": {
      "type": [
        "object"
      ],
      "required": true
    },
    "bookmarkList": {
      "type": [
        "string"
      ]
    }
  },
  "validations": [],
  "relations": {},
  "acls": [
    {
      "principalType": "ROLE",
      "principalId": "$everyone",
      "permission": "DENY"
    },
    {
      "principalType": "ROLE",
      "principalId": "$authenticated",
      "permission": "ALLOW",
      "property": "*"
    }
  ],
  "methods": {}
}
