{
  "name": "maum-admin",
  "configFiles": [
    {
      "dir": "etc",
      "mappings": [
        {
          "template": "maum-admin-server.conf.in",
          "useReserved": true
        }
      ]
    },
    {
      "dir": "etc/supervisor/conf.d",
      "mappings": [
        {
          "template": "maum-admin.conf.in"
        }
      ]
    },
    {
      "dir": "etc/logback",
      "mappings": [
        {
          "template": "maum-admin-server-logback.xml.in"
        }
      ]
    },
    {
      "dir": "etc/nginx",
      "mappings": [
        {
          "template": "maum-admin.conf.in"
        },
        {
          "template": "maum-admin-upstream.conf.in"
        }
      ]
    }

  ],
  "variables": [
    {
      "variable": "LOGS_DIR",
      "description": "logs directory",
      "default_value": "${MAUM_ROOT}/logs"
    },
    {
      "variable": "NGINX_BIN",
      "description": "nginx binary full path or name",
      "default_value": "/usr/sbin/nginx"
    },
    {
      "variable": "SVC_HOST",
      "description": "Local host IP or DNS name for binding address",
      "default_value": "${HOSTIP}"
    },
    {
      "variable": "ALT_SVC_HOST",
      "description": "nginx alt hostname",
      "default_value": "www.${HOSTIP}"
    },
    {
      "variable": "M2U_REST_HOST",
      "description": "m2u map rest host",
      "default_value": "${HOSTIP}"
    },
    {
      "variable": "M2U_REST_PORT",
      "description": "m2u map rest port",
      "default_value": "9999"
    },
    {
      "variable": "MAUM_ADMIN_WEB_HOST",
      "description": "maum-admin web port",
      "default_value": "${HOSTIP}"
    },
    {
      "variable": "MAUM_ADMIN_WEB_PORT",
      "description": "maum-admin web port",
      "default_value": "9880"
    },
    {
      "variable": "MAUM_ADMIN_REST_HOST",
      "description": "Local host IP or DNS name for binding address",
      "default_value": "0.0.0.0"
    },
    {
      "variable": "MAUM_ADMIN_REST_PORT",
      "description": "maum-admin rest port",
      "default_value": "9920"
    },
    {
      "variable": "CALLBACK_SERVER_PROTOCOL",
      "description": "callback server protocol",
      "default_value": "http"
    },
    {
      "variable": "MAI_API_SERVER_HOST",
      "description": "maum-admin server host",
      "default_value": "${HOSTIP}"
    },
    {
      "variable": "MAI_API_SERVER_PORT",
      "description": "maum-admin server port",
      "default_value": "9881"
    },
    {
      "variable": "MAI_DB_HOST",
      "description": "maum admin datasource host",
      "default_value": "localhost"
    },
    {
      "variable": "MAI_DB_PORT",
      "description": "maum admin datasource port",
      "default_value": "3306"
    },
    {
      "variable": "MAI_DB_SCHEMA",
      "description": "maum admin datasource database",
      "default_value": "admin_console"
    },
    {
      "variable": "MAI_DB_USER",
      "description": "maum admin datasource user",
      "default_value": "maum"
    },
    {
      "variable": "MAI_DB_PASSWORD",
      "description": "maum admin datasource user",
      "default_value": "ggoggoma"
    },
    {
      "variable": "MAI_SERVER_LOGBACK",
      "description": "maum admin server logfile name",
      "default_value": "maum-admin-server"
    },
    {
      "variable": "BRAIN_SDS_TRAIN_SERVER_IP",
      "description": "SDS training server ip",
      "default_value": "${HOSTIP}"
    },
    {
      "variable": "BRAIN_SDS_TRAIN_SERVER_PORT",
      "description": "SDS training server port",
      "default_value": "9861"
    },
    {
      "variable": "BRAIN_SDS_TALK_SERVER_IP",
      "description": "SDS talk server ip",
      "default_value": "${HOSTIP}"
    },
    {
      "variable": "BRAIN_SDS_TALK_SERVER_PORT",
      "description": "SDS talk server port",
      "default_value": "9860"
    },
    {
      "variable": "BRAIN_MRC_TRAIN_SERVER_IP",
      "description": "MRC training server ip",
      "default_value": "${HOSTIP}"
    },
    {
      "variable": "MRC_PASSAGE_SEARCH_SERVER_IP",
      "description": "MRC passage search server ip",
      "default_value": "${HOSTIP}"
    },
    {
      "variable": "MRC_PASSAGE_SEARCH_SERVER_PORT",
      "description": "MRC passage search server port",
      "default_value": "50055"
    },
    {
      "variable": "HMD_TRAIN_SERVER_IP",
      "description": "HMD training server ip",
      "default_value": "${HOSTIP}"
    },
    {
      "variable": "BRAIN_TA_CL_IP",
      "description": "Brain ta brain cl ip",
      "default_value": "${HOSTIP}"
    },
    {
      "variable": "BRAIN_TA_NLP_KOR_1_SERVER_IP",
      "description": "Brain nlp kor 1 server ip",
      "default_value": "${HOSTIP}"
    },
    {
      "variable": "BRAIN_TA_NLP_KOR_2_SERVER_IP",
      "description": "Brain nlp kor 2 server ip",
      "default_value": "${HOSTIP}"
    },
    {
      "variable": "BRAIN_TA_NLP_KOR_3_SERVER_IP",
      "description": "Brain nlp kor 3 server ip",
      "default_value": "${HOSTIP}"
    },
    {
      "variable": "BRAIN_TA_NLP_ENG_2_SERVER_IP",
      "description": "Brain nlp eng 2 server ip",
      "default_value": "${HOSTIP}"
    },
    {
      "variable": "BRAIN_TA_NLP_WE_IP",
      "description": "Brain nlp word embedding",
      "default_value": "${HOSTIP}"
    },
    {
      "variable": "MLT_PARAPHRASE_IP",
      "description": "MLT paraphrase server ip",
      "default_value": "${HOSTIP}"
    },
    {
      "variable": "STT_TRAIN_SERVER_IP",
      "description": "STT train server IP address",
      "default_value": "${HOSTIP}"
    },
    {
      "variable": "STT_TRAIN_SERVER_PORT",
      "description": "STT train server port",
      "default_value": "9802"
    },
    {
      "variable": "STT_EVAL_IP",
      "description": "STT evaluation IP address",
      "default_value": "${HOSTIP}"
    },
    {
      "variable": "STT_ANALYSIS_SERVER_IP",
      "description": "STT analysis IP address",
      "default_value": "${HOSTIP}"
    },
    {
      "variable": "TA_TRAIN_SERVER_IP",
      "description": "TA train server IP address",
      "default_value": "${HOSTIP}"
    },
    {
      "variable": "SDS_SERVER_IP",
      "description": "SDS server IP address",
      "default_value": "${HOSTIP}"
    },
    {
      "variable": "SDS_TRAIN_SERVER_IP",
      "description": "SDS train server IP address",
      "default_value": "${HOSTIP}"
    },
    {
      "variable": "BSQA_SERVER_IP",
      "description": "Basic QA server IP address",
      "default_value": "${HOSTIP}"
    },
    {
      "variable": "BSQA_V2_SERVER_IP",
      "description": "Basic QA V2 server IP address",
      "default_value": "${HOSTIP}"
    },
    {
      "variable": "EXPORT_HOST",
      "description": "Host IP or DNS name for external access",
      "default_value": "${HOSTIP}"
    }
  ]
}